Tidyverse functions that make wrangling data easier
…
Rows: 898
Columns: 5
$ player   <chr> "Ahmed, Nick", "Bumgarner, Madison", "Cabrera, Asdrubal", "Ca…
$ team     <chr> "Arizona Diamondbacks", "Arizona Diamondbacks", "Arizona Diam…
$ league   <chr> "NL-West", "NL-West", "NL-West", "NL-West", "NL-West", "NL-We…
$ position <chr> "SS", "SP", "2B", "OF", "SP", "RP", "RP", "RP", "3B", "SP", "…
$ salary   <dbl> 8125000, 17882892, 1750000, 8000000, 601800, 1750000, 596400,…

mlb %>% 
  group_by(team) %>% 
  summarize(total=n())

# A tibble: 30 × 2
   team                 total
   <chr>                <int>
 1 Arizona Diamondbacks    29
 2 Atlanta Braves          28
 3 Baltimore Orioles       30
 4 Boston Red Sox          29
 5 Chicago Cubs            29
 6 Chicago White Sox       29
 7 Cincinnati Reds         29
 8 Cleveland Guardians     27
 9 Colorado Rockies        30
10 Detroit Tigers          28
# … with 20 more rows
…
mlb <- read_csv("data/mlb.csv")
glimpse(mlb)

Rows: 898
Columns: 5
$ player   <chr> "Ahmed, Nick", "Bumgarner, Madison", "Cabrera, Asdrubal", "Ca…
$ team     <chr> "Arizona Diamondbacks", "Arizona Diamondbacks", "Arizona Diam…
$ league   <chr> "NL-West", "NL-West", "NL-West", "NL-West", "NL-West", "NL-We…
$ position <chr> "SS", "SP", "2B", "OF", "SP", "RP", "RP", "RP", "3B", "SP", "…
$ salary   <dbl> 8125000, 17882892, 1750000, 8000000, 601800, 1750000, 596400,…

mlb %>% 
  count(team)

# A tibble: 30 × 2
   team                     n
   <chr>                <int>
 1 Arizona Diamondbacks    29
 2 Atlanta Braves          28
 3 Baltimore Orioles       30
 4 Boston Red Sox          29
 5 Chicago Cubs            29
 6 Chicago White Sox       29
 7 Cincinnati Reds         29
 8 Cleveland Guardians     27
 9 Colorado Rockies        30
10 Detroit Tigers          28
# … with 20 more rows
…
Rows: 898
Columns: 5
$ player   <chr> "Ahmed, Nick", "Bumgarner, Madison", "Cabrera, Asdrubal", "Ca…
$ team     <chr> "Arizona Diamondbacks", "Arizona Diamondbacks", "Arizona Diam…
$ league   <chr> "NL-West", "NL-West", "NL-West", "NL-West", "NL-West", "NL-We…
$ position <chr> "SS", "SP", "2B", "OF", "SP", "RP", "RP", "RP", "3B", "SP", "…
$ salary   <dbl> 8125000, 17882892, 1750000, 8000000, 601800, 1750000, 596400,…

mlb %>% 
  count(team, 
        name="total")

# A tibble: 30 × 2
   team                 total
   <chr>                <int>
 1 Arizona Diamondbacks    29
 2 Atlanta Braves          28
 3 Baltimore Orioles       30
 4 Boston Red Sox          29
 5 Chicago Cubs            29
 6 Chicago White Sox       29
 7 Cincinnati Reds         29
 8 Cleveland Guardians     27
 9 Colorado Rockies        30
10 Detroit Tigers          28
# … with 20 more rows
…
Rows: 898
Columns: 5
$ player   <chr> "Ahmed, Nick", "Bumgarner, Madison", "Cabrera, Asdrubal", "Ca…
$ team     <chr> "Arizona Diamondbacks", "Arizona Diamondbacks", "Arizona Diam…
$ league   <chr> "NL-West", "NL-West", "NL-West", "NL-West", "NL-West", "NL-We…
$ position <chr> "SS", "SP", "2B", "OF", "SP", "RP", "RP", "RP", "3B", "SP", "…
$ salary   <dbl> 8125000, 17882892, 1750000, 8000000, 601800, 1750000, 596400,…

mlb %>% 
  count(team, 
        sort=TRUE,
        wt=salary,
        name="total_salary")

# A tibble: 30 × 2
   team                  total_salary
   <chr>                        <dbl>
 1 Los Angeles Dodgers      250025736
 2 New York Mets            209915869
 3 Los Angeles Angels       200909176
 4 New York Yankees         195900264
 5 Houston Astros           186399250
 6 Washington Nationals     181276812
 7 San Diego Padres         177004886
 8 Philadelphia Phillies    173090832
 9 St. Louis Cardinals      163222000
10 Boston Red Sox           149743574
# … with 20 more rows
…
count() again

disney %>% 
  mutate(year=year(mdy(release_date))) %>% 
  count(year)

# A tibble: 54 × 2
    year     n
   <dbl> <int>
 1  1937     1
 2  1940     2
 3  1946     1
 4  1950     1
 5  1954     1
 6  1955     1
 7  1959     1
 8  1961     3
 9  1962     1
10  1963     1
# … with 44 more rows
…
add_count()

Normally:

osha %>% 
  mutate(city=str_to_title(city)) %>% 
  group_by(city, state) %>% 
  summarize(total=n()) %>% 
  filter(total>100)

# A tibble: 72 × 3
# Groups:   city [72]
   city        state total
   <chr>       <chr> <int>
 1 Albuquerque NM      140
 2 Atlanta     GA      333
 3 Austin      TX      285
 4 Bakersfield CA      134
 5 Baltimore   MD      181
 6 Baton Rouge LA      123
 7 Birmingham  AL      135
 8 Boston      MA      104
 9 Brooklyn    NY      138
10 Charlotte   NC      332
# … with 62 more rows

add_count()

Normally:

osha %>% 
  mutate(city=str_to_title(city)) %>% 
  group_by(city, state) %>% 
  summarize(total=n()) %>% 
  group_by(state) %>% 
  mutate(state_count=sum(total)) %>% 
  filter(total>100)

# A tibble: 72 × 4
# Groups:   state [33]
   city        state total state_count
   <chr>       <chr> <int>       <int>
 1 Albuquerque NM      140         336
 2 Atlanta     GA      333        2744
 3 Austin      TX      285        6589
 4 Bakersfield CA      134        9164
 5 Baltimore   MD      181        1251
 6 Baton Rouge LA      123        1087
 7 Birmingham  AL      135        1289
 8 Boston      MA      104        1926
 9 Brooklyn    NY      138        3324
10 Charlotte   NC      332        2831
# … with 62 more rows

add_count()

osha %>% 
  mutate(city=str_to_title(city)) %>% 
  count(city, state) %>% 
  add_count(state, wt=n) %>% 
  filter(n>100)

# A tibble: 72 × 4
   city        state     n    nn
   <chr>       <chr> <int> <int>
 1 Albuquerque NM      140   336
 2 Atlanta     GA      333  2744
 3 Austin      TX      285  6589
 4 Bakersfield CA      134  9164
 5 Baltimore   MD      181  1251
 6 Baton Rouge LA      123  1087
 7 Birmingham  AL      135  1289
 8 Boston      MA      104  1926
 9 Brooklyn    NY      138  3324
10 Charlotte   NC      332  2831
# … with 62 more rows

add_count()

osha %>% 
  mutate(city=str_to_title(city)) %>% 
  count(city, state, name="city_count") %>% 
  add_count(state, wt=city_count, name="state_count") %>% 
  filter(city_count>100)

# A tibble: 72 × 4
   city        state city_count state_count
   <chr>       <chr>      <int>       <int>
 1 Albuquerque NM           140         336
 2 Atlanta     GA           333        2744
 3 Austin      TX           285        6589
 4 Bakersfield CA           134        9164
 5 Baltimore   MD           181        1251
 6 Baton Rouge LA           123        1087
 7 Birmingham  AL           135        1289
 8 Boston      MA           104        1926
 9 Brooklyn    NY           138        3324
10 Charlotte   NC           332        2831
# … with 62 more rows
…
6. lag

lag()

disney %>% 
  mutate(year=year(mdy(release_date))) %>% 
  count(year)

# A tibble: 54 × 2
    year     n
   <dbl> <int>
 1  1937     1
 2  1940     2
 3  1946     1
 4  1950     1
 5  1954     1
 6  1955     1
 7  1959     1
 8  1961     3
 9  1962     1
10  1963     1
# … with 44 more rows
…
7. crossing()

Making a dummy set with crossing()

dummy_df <- crossing(month=1:12,
                     year=2019:2022)

dummy_df

# A tibble: 48 × 2
   month  year
   <int> <int>
 1     1  2019
 2     1  2020
 3     1  2021
 4     1  2022
 5     2  2019
 6     2  2020
 7     2  2021
 8     2  2022
 9     3  2019
10     3  2020
# … with 38 more rows
…
 [1] "AL" "AK" "AZ" "AR" "CA" "CO" "CT" "DE" "FL" "GA" "HI" "ID" "IL" "IN" "IA"
[16] "KS" "KY" "LA" "ME" "MD" "MA" "MI" "MN" "MS" "MO" "MT" "NE" "NV" "NH" "NJ"
[31] "NM" "NY" "NC" "ND" "OH" "OK" "OR" "PA" "RI" "SC" "SD" "TN" "TX" "UT" "VT"
[46] "VA" "WA" "WV" "WI" "WY"

Making a dummy set with crossing()

dummy_df <- crossing(month=1:12,
                     year=2019:2022,
                     state=state.abb)

dummy_df

# A tibble: 2,400 × 3
   month  year state
   <int> <int> <chr>
 1     1  2019 AK   
 2     1  2019 AL   
 3     1  2019 AR   
 4     1  2019 AZ   
 5     1  2019 CA   
 6     1  2019 CO   
 7     1  2019 CT   
 8     1  2019 DE   
 9     1  2019 FL   
10     1  2019 GA   
# … with 2,390 more rows
…
collapse in paste0()

sal %>% group_by(department) %>%
  summarize(total_budget=sum(total_comp, na.rm=T),
            titles=paste0(job_title, collapse=", "))

# A tibble: 39 × 3
   department                         total_budget titles                       
   <chr>                                     <dbl> <chr>                        
 1 Animal Care & Control                   847722. Administrative Assistant, Ad…
 2 Board of Public Safety                    2352. Board Member, Board Member, …
 3 CFRD                                    405009. Director, After Hours Ambass…
 4 Clerk's Office                          156848. Intern, City Clerk, Intern, …
 5 Controller's Office                     663937. Accounts Payable/Revenue Cle…
 6 Council Office                          330877. Assistant Administrator/Lega…
 7 Economic & Sustainable Development      338964. Local Food System Specialist…
 8 Engineering                             554237. Senior Project Manager, City…
 9 Facilities Maintenance                  184011. Director, Maintenance/Custod…
10 Fire                                   6775018. FF1, Captain, FF1, Chauffeur…
# … with 29 more rows

collapse in paste0()

sal %>% group_by(department) %>%
  summarize(total_budget=sum(total_comp, na.rm=T),
            titles=paste0(unique(job_title), collapse=", "))

# A tibble: 39 × 3
   department                         total_budget titles                       
   <chr>                                     <dbl> <chr>                        
 1 Animal Care & Control                   847722. Administrative Assistant, Sp…
 2 Board of Public Safety                    2352. Board Member                 
 3 CFRD                                    405009. Director, After Hours Ambass…
 4 Clerk's Office                          156848. Intern, City Clerk, Chief De…
 5 Controller's Office                     663937. Accounts Payable/Revenue Cle…
 6 Council Office                          330877. Assistant Administrator/Lega…
 7 Economic & Sustainable Development      338964. Local Food System Specialist…
 8 Engineering                             554237. Senior Project Manager, City…
 9 Facilities Maintenance                  184011. Director, Maintenance/Custod…
10 Fire                                   6775018. FF1, Captain, Chauffeur, Pro…
# … with 29 more rows

10. tidylog

tidylog

library(tidylog)

transactions <- read_csv("data/transactions.csv", col_types="ccccccccccccccTnccccccc")
candidates <- read_csv("data/candidates.csv", col_types = cols(.default = "c"))

tidylog

inner_join(transactions, candidates, by = "cand_id")

# A tibble: 649 × 36
   cmte_id   amndt_ind rpt_tp trans…¹ image…² trans…³ entit…⁴ name  city.x state
   <chr>     <chr>     <chr>  <chr>   <chr>   <chr>   <chr>   <chr> <chr>  <chr>
 1 C00725820 N         30R    P2024   202102… 24A     ORG     SUMM… PARK … UT   
 2 C00725820 N         30R    P2024   202102… 24A     ORG     SHUT… NEW Y… NY   
 3 C00749101 N         30R    P2024   202102… 24A     ORG     GRAS… BALA … PA   
 4 C00448696 N         M2     P2024   202102… 24E     ORG     ALLI… BOCA … FL   
 5 C00448696 N         M2     P2024   202102… 24E     ORG     ALLI… BOCA … FL   
 6 C00448696 N         M2     P2024   202102… 24E     ORG     ALLI… BOCA … FL   
 7 C00448696 N         M2     P2024   202102… 24E     ORG     RIGH… ALEXA… VA   
 8 C00448696 N         M2     P2024   202102… 24E     ORG     RIGH… ALEXA… VA   
 9 C00448696 N         M2     P2024   202102… 24E     ORG     ALLI… BOCA … FL   
10 C00448696 N         M2     P2024   202102… 24E     PAC     SENA… WASHI… DC   
# … with 639 more rows, 26 more variables: zip_code <chr>, employer <chr>,
#   occupation <chr>, transaction_dt <chr>, transaction_amt <dttm>,
#   other_id <dbl>, cand_id <chr>, tran_id <chr>, file_num <chr>,
#   memo_cd <chr>, memo_text <chr>, sub_id <chr>, cand_name <chr>, party <chr>,
#   election_yr <chr>, office_st <chr>, office <chr>, district <chr>,
#   ici <chr>, status <chr>, pcc <chr>, st1 <chr>, st2 <chr>, city.y <chr>,
#   st <chr>, zip <chr>, and abbreviated variable names ¹​transaction_pgi, …

tidylog

left_join(transactions, candidates, by = "cand_id")

# A tibble: 657 × 36
   cmte_id   amndt_ind rpt_tp trans…¹ image…² trans…³ entit…⁴ name  city.x state
   <chr>     <chr>     <chr>  <chr>   <chr>   <chr>   <chr>   <chr> <chr>  <chr>
 1 C00725820 N         30R    P2024   202102… 24A     ORG     SUMM… PARK … UT   
 2 C00725820 N         30R    P2024   202102… 24A     ORG     SHUT… NEW Y… NY   
 3 C00749101 N         30R    P2024   202102… 24A     ORG     GRAS… BALA … PA   
 4 C00448696 N         M2     P2024   202102… 24E     ORG     ALLI… BOCA … FL   
 5 C00448696 N         M2     P2024   202102… 24E     ORG     ALLI… BOCA … FL   
 6 C00448696 N         M2     P2024   202102… 24E     ORG     ALLI… BOCA … FL   
 7 C00448696 N         M2     P2024   202102… 24E     ORG     RIGH… ALEXA… VA   
 8 C00448696 N         M2     P2024   202102… 24E     ORG     RIGH… ALEXA… VA   
 9 C00448696 N         M2     P2024   202102… 24E     ORG     ALLI… BOCA … FL   
10 C00448696 N         M2     P2024   202102… 24E     PAC     SENA… WASHI… DC   
# … with 647 more rows, 26 more variables: zip_code <chr>, employer <chr>,
#   occupation <chr>, transaction_dt <chr>, transaction_amt <dttm>,
#   other_id <dbl>, cand_id <chr>, tran_id <chr>, file_num <chr>,
#   memo_cd <chr>, memo_text <chr>, sub_id <chr>, cand_name <chr>, party <chr>,
#   election_yr <chr>, office_st <chr>, office <chr>, district <chr>,
#   ici <chr>, status <chr>, pcc <chr>, st1 <chr>, st2 <chr>, city.y <chr>,
#   st <chr>, zip <chr>, and abbreviated variable names ¹​transaction_pgi, …
